{
    "title": "Rule 34h",
    "indexUrl": "https://rule34h.com/{pageStr:page/{page:1}/}",
    "indexRule": {
        "item": {
            "selector": "main#main article"
        },
        "idCode": {
            "selector": "a",
            "fun": "attr",
            "param": "href"
        },
        "cover": {
            "selector": "div.post-thumbnail-container img",
            "fun": "attr",
            "param": "data-src"
        },
        "title": {
            "selector": "header>span",
            "fun": "text"
        },
        "rating": {
            "selector": "div.rating-bar span",
            "fun": "text",
            "regex": "(\\d+)%",
            "replacement": "$1/20"
        }
    },
    "galleryUrl": "{idCode:}",
    "galleryRule": {
        "videoRule": {
            "item": {
                "selector": "div.video-player"
            },
            "thumbnail": {
                "selector": "meta[itemprop='thumbnailUrl']",
                "fun": "attr",
                "param": "content"
            },
            "content": {
                "selector": "div.responsive-player>iframe",
                "fun": "attr",
                "param": "data-src"
            }
        }
    },
    "flag": "preloadGallery",
    "searchUrl": "https://rule34h.com/{pageStr:page/{page:1}/}?s={keyword:}",
    "categories": [
        {
            "cid": 1,
            "title": "Index",
            "url": "https://rule34h.com/{pageStr:page/{page:1}/}"
        }
    ],
    "versionCode": 1
}